lab3_4/simulation/qsim/lab3_4.msim.vcd
$comment
	File created using the following command:
		vcd file lab3_4.msim.vcd -direction
$end
$date
	Mon Aug 09 13:27:18 2021
$end
$version
	ModelSim Version 10.5b
$end
$timescale
	1ps
$end

$scope module lab3_4_vhd_vec_tst $end
$var wire 1 ! Clk $end
$var wire 1 " D $end
$var wire 1 # Qa $end
$var wire 1 $ Qb $end
$var wire 1 % Qc $end

$scope module i1 $end
$var wire 1 & gnd $end
$var wire 1 ' vcc $end
$var wire 1 ( unknown $end
$var wire 1 ) devoe $end
$var wire 1 * devclrn $end
$var wire 1 + devpor $end
$var wire 1 , ww_devoe $end
$var wire 1 - ww_devclrn $end
$var wire 1 . ww_devpor $end
$var wire 1 / ww_Clk $end
$var wire 1 0 ww_D $end
$var wire 1 1 ww_Qa $end
$var wire 1 2 ww_Qb $end
$var wire 1 3 ww_Qc $end
$var wire 1 4 \~QUARTUS_CREATED_ADC1~_CHSEL_bus\ [4] $end
$var wire 1 5 \~QUARTUS_CREATED_ADC1~_CHSEL_bus\ [3] $end
$var wire 1 6 \~QUARTUS_CREATED_ADC1~_CHSEL_bus\ [2] $end
$var wire 1 7 \~QUARTUS_CREATED_ADC1~_CHSEL_bus\ [1] $end
$var wire 1 8 \~QUARTUS_CREATED_ADC1~_CHSEL_bus\ [0] $end
$var wire 1 9 \~QUARTUS_CREATED_ADC2~_CHSEL_bus\ [4] $end
$var wire 1 : \~QUARTUS_CREATED_ADC2~_CHSEL_bus\ [3] $end
$var wire 1 ; \~QUARTUS_CREATED_ADC2~_CHSEL_bus\ [2] $end
$var wire 1 < \~QUARTUS_CREATED_ADC2~_CHSEL_bus\ [1] $end
$var wire 1 = \~QUARTUS_CREATED_ADC2~_CHSEL_bus\ [0] $end
$var wire 1 > \Clk~inputclkctrl_INCLK_bus\ [3] $end
$var wire 1 ? \Clk~inputclkctrl_INCLK_bus\ [2] $end
$var wire 1 @ \Clk~inputclkctrl_INCLK_bus\ [1] $end
$var wire 1 A \Clk~inputclkctrl_INCLK_bus\ [0] $end
$var wire 1 B \~QUARTUS_CREATED_GND~I_combout\ $end
$var wire 1 C \~QUARTUS_CREATED_UNVM~~busy\ $end
$var wire 1 D \~QUARTUS_CREATED_ADC1~~eoc\ $end
$var wire 1 E \~QUARTUS_CREATED_ADC2~~eoc\ $end
$var wire 1 F \Qa~output_o\ $end
$var wire 1 G \Qb~output_o\ $end
$var wire 1 H \Qc~output_o\ $end
$var wire 1 I \D~input_o\ $end
$var wire 1 J \Clk~input_o\ $end
$var wire 1 K \Clk~inputclkctrl_outclk\ $end
$var wire 1 L \g|Q~combout\ $end
$var wire 1 M \p|Q~feeder_combout\ $end
$var wire 1 N \p|Q~q\ $end
$var wire 1 O \n|Q~feeder_combout\ $end
$var wire 1 P \n|Q~q\ $end
$var wire 1 Q \ALT_INV_Clk~inputclkctrl_outclk\ $end
$upscope $end
$upscope $end
$enddefinitions $end
#0
$dumpvars
0!
1"
x#
0$
0%
0&
1'
x(
1)
1*
1+
1,
1-
1.
0/
10
x1
02
03
0B
zC
zD
zE
xF
0G
0H
1I
0J
0K
xL
1M
0N
1O
0P
1Q
1>
1?
1@
0A
04
05
06
07
08
09
0:
0;
0<
0=
$end
#5000
1!
1/
1J
1A
1K
0Q
1L
1N
1G
1F
12
11
1$
1#
#10000
0!
0"
0/
00
0I
0J
0A
0L
0M
0O
0F
0K
01
1Q
0#
#15000
1!
1/
1J
1A
1K
0Q
0N
0G
02
0$
#20000
0!
1"
0/
10
1I
0J
0A
1L
1M
1O
1F
0K
11
1Q
1#
1P
1H
13
1%
#25000
1!
1/
1J
1A
1K
0Q
1N
1G
12
1$
#30000
0!
0"
0/
00
0I
0J
0A
0L
0M
0O
0F
0K
01
1Q
0#
0P
0H
03
0%
#35000
1!
1/
1J
1A
1K
0Q
0N
0G
02
0$
#40000
0!
1"
0/
10
1I
0J
0A
1L
1M
1O
1F
0K
11
1Q
1#
1P
1H
13
1%
#45000
1!
1/
1J
1A
1K
0Q
1N
1G
12
1$
#50000
0!
0"
0/
00
0I
0J
0A
0L
0M
0O
0F
0K
01
1Q
0#
0P
0H
03
0%
#55000
1!
1/
1J
1A
1K
0Q
0N
0G
02
0$
#60000
0!
1"
0/
10
1I
0J
0A
1L
1M
1O
1F
0K
11
1Q
1#
1P
1H
13
1%
#65000
1!
1/
1J
1A
1K
0Q
1N
1G
12
1$
#70000
0!
0"
0/
00
0I
0J
0A
0L
0M
0O
0F
0K
01
1Q
0#
0P
0H
03
0%
#75000
1!
1/
1J
1A
1K
0Q
0N
0G
02
0$
#80000
0!
1"
0/
10
1I
0J
0A
1L
1M
1O
1F
0K
11
1Q
1#
1P
1H
13
1%
#85000
1!
1/
1J
1A
1K
0Q
1N
1G
12
1$
#90000
0!
0"
0/
00
0I
0J
0A
0L
0M
0O
0F
0K
01
1Q
0#
0P
0H
03
0%
#95000
1!
1/
1J
1A
1K
0Q
0N
0G
02
0$
#100000
0!
1"
0/
10
1I
0J
0A
1L
1M
1O
1F
0K
11
1Q
1#
1P
1H
13
1%
#105000
1!
1/
1J
1A
1K
0Q
1N
1G
12
1$
#110000
0!
0"
0/
00
0I
0J
0A
0L
0M
0O
0F
0K
01
1Q
0#
0P
0H
03
0%
#115000
1!
1/
1J
1A
1K
0Q
0N
0G
02
0$
#120000
0!
1"
0/
10
1I
0J
0A
1L
1M
1O
1F
0K
11
1Q
1#
1P
1H
13
1%
#125000
1!
1/
1J
1A
1K
0Q
1N
1G
12
1$
#130000
0!
0"
0/
00
0I
0J
0A
0L
0M
0O
0F
0K
01
1Q
0#
0P
0H
03
0%
#135000
1!
1/
1J
1A
1K
0Q
0N
0G
02
0$
#140000
0!
1"
0/
10
1I
0J
0A
1L
1M
1O
1F
0K
11
1Q
1#
1P
1H
13
1%
#145000
1!
1/
1J
1A
1K
0Q
1N
1G
12
1$
#150000
0!
0"
0/
00
0I
0J
0A
0L
0M
0O
0F
0K
01
1Q
0#
0P
0H
03
0%
#155000
1!
1/
1J
1A
1K
0Q
0N
0G
02
0$
#160000
0!
1"
0/
10
1I
0J
0A
1L
1M
1O
1F
0K
11
1Q
1#
1P
1H
13
1%
#165000
1!
1/
1J
1A
1K
0Q
1N
1G
12
1$
#170000
0!
0"
0/
00
0I
0J
0A
0L
0M
0O
0F
0K
01
1Q
0#
0P
0H
03
0%
#175000
1!
1/
1J
1A
1K
0Q
0N
0G
02
0$
#180000
0!
1"
0/
10
1I
0J
0A
1L
1M
1O
1F
0K
11
1Q
1#
1P
1H
13
1%
#185000
1!
1/
1J
1A
1K
0Q
1N
1G
12
1$
#190000
0!
0"
0/
00
0I
0J
0A
0L
0M
0O
0F
0K
01
1Q
0#
0P
0H
03
0%
#195000
1!
1/
1J
1A
1K
0Q
0N
0G
02
0$
#200000
0!
1"
0/
10
1I
0J
0A
1L
1M
1O
1F
0K
11
1Q
1#
1P
1H
13
1%
#205000
1!
1/
1J
1A
1K
0Q
1N
1G
12
1$
#210000
0!
0"
0/
00
0I
0J
0A
0L
0M
0O
0F
0K
01
1Q
0#
0P
0H
03
0%
#215000
1!
1/
1J
1A
1K
0Q
0N
0G
02
0$
#220000
0!
1"
0/
10
1I
0J
0A
1L
1M
1O
1F
0K
11
1Q
1#
1P
1H
13
1%
#225000
1!
1/
1J
1A
1K
0Q
1N
1G
12
1$
#230000
0!
0"
0/
00
0I
0J
0A
0L
0M
0O
0F
0K
01
1Q
0#
0P
0H
03
0%
#235000
1!
1/
1J
1A
1K
0Q
0N
0G
02
0$
#240000
0!
1"
0/
10
1I
0J
0A
1L
1M
1O
1F
0K
11
1Q
1#
1P
1H
13
1%
#245000
1!
1/
1J
1A
1K
0Q
1N
1G
12
1$
#250000
0!
0"
0/
00
0I
0J
0A
0L
0M
0O
0F
0K
01
1Q
0#
0P
0H
03
0%
#255000
1!
1/
1J
1A
1K
0Q
0N
0G
02
0$
#260000
0!
1"
0/
10
1I
0J
0A
1L
1M
1O
1F
0K
11
1Q
1#
1P
1H
13
1%
#265000
1!
1/
1J
1A
1K
0Q
1N
1G
12
1$
#270000
0!
0"
0/
00
0I
0J
0A
0L
0M
0O
0F
0K
01
1Q
0#
0P
0H
03
0%
#275000
1!
1/
1J
1A
1K
0Q
0N
0G
02
0$
#280000
0!
1"
0/
10
1I
0J
0A
1L
1M
1O
1F
0K
11
1Q
1#
1P
1H
13
1%
#285000
1!
1/
1J
1A
1K
0Q
1N
1G
12
1$
#290000
0!
0"
0/
00
0I
0J
0A
0L
0M
0O
0F
0K
01
1Q
0#
0P
0H
03
0%
#295000
1!
1/
1J
1A
1K
0Q
0N
0G
02
0$
#300000
0!
1"
0/
10
1I
0J
0A
1L
1M
1O
1F
0K
11
1Q
1#
1P
1H
13
1%
#305000
1!
1/
1J
1A
1K
0Q
1N
1G
12
1$
#310000
0!
0"
0/
00
0I
0J
0A
0L
0M
0O
0F
0K
01
1Q
0#
0P
0H
03
0%
#315000
1!
1/
1J
1A
1K
0Q
0N
0G
02
0$
#320000
0!
1"
0/
10
1I
0J
0A
1L
1M
1O
1F
0K
11
1Q
1#
1P
1H
13
1%
#325000
1!
1/
1J
1A
1K
0Q
1N
1G
12
1$
#330000
0!
0"
0/
00
0I
0J
0A
0L
0M
0O
0F
0K
01
1Q
0#
0P
0H
03
0%
#335000
1!
1/
1J
1A
1K
0Q
0N
0G
02
0$
#340000
0!
1"
0/
10
1I
0J
0A
1L
1M
1O
1F
0K
11
1Q
1#
1P
1H
13
1%
#345000
1!
1/
1J
1A
1K
0Q
1N
1G
12
1$
#350000
0!
0"
0/
00
0I
0J
0A
0L
0M
0O
0F
0K
01
1Q
0#
0P
0H
03
0%
#355000
1!
1/
1J
1A
1K
0Q
0N
0G
02
0$
#360000
0!
1"
0/
10
1I
0J
0A
1L
1M
1O
1F
0K
11
1Q
1#
1P
1H
13
1%
#365000
1!
1/
1J
1A
1K
0Q
1N
1G
12
1$
#370000
0!
0"
0/
00
0I
0J
0A
0L
0M
0O
0F
0K
01
1Q
0#
0P
0H
03
0%
#375000
1!
1/
1J
1A
1K
0Q
0N
0G
02
0$
#380000
0!
1"
0/
10
1I
0J
0A
1L
1M
1O
1F
0K
11
1Q
1#
1P
1H
13
1%
#385000
1!
1/
1J
1A
1K
0Q
1N
1G
12
1$
#390000
0!
0"
0/
00
0I
0J
0A
0L
0M
0O
0F
0K
01
1Q
0#
0P
0H
03
0%
#395000
1!
1/
1J
1A
1K
0Q
0N
0G
02
0$
#400000
0!
1"
0/
10
1I
0J
0A
1L
1M
1O
1F
0K
11
1Q
1#
1P
1H
13
1%
#405000
1!
1/
1J
1A
1K
0Q
1N
1G
12
1$
#410000
0!
0"
0/
00
0I
0J
0A
0L
0M
0O
0F
0K
01
1Q
0#
0P
0H
03
0%
#415000
1!
1/
1J
1A
1K
0Q
0N
0G
02
0$
#420000
0!
1"
0/
10
1I
0J
0A
1L
1M
1O
1F
0K
11
1Q
1#
1P
1H
13
1%
#425000
1!
1/
1J
1A
1K
0Q
1N
1G
12
1$
#430000
0!
0"
0/
00
0I
0J
0A
0L
0M
0O
0F
0K
01
1Q
0#
0P
0H
03
0%
#435000
1!
1/
1J
1A
1K
0Q
0N
0G
02
0$
#440000
0!
1"
0/
10
1I
0J
0A
1L
1M
1O
1F
0K
11
1Q
1#
1P
1H
13
1%
#445000
1!
1/
1J
1A
1K
0Q
1N
1G
12
1$
#450000
0!
0"
0/
00
0I
0J
0A
0L
0M
0O
0F
0K
01
1Q
0#
0P
0H
03
0%
#455000
1!
1/
1J
1A
1K
0Q
0N
0G
02
0$
#460000
0!
1"
0/
10
1I
0J
0A
1L
1M
1O
1F
0K
11
1Q
1#
1P
1H
13
1%
#465000
1!
1/
1J
1A
1K
0Q
1N
1G
12
1$
#470000
0!
0"
0/
00
0I
0J
0A
0L
0M
0O
0F
0K
01
1Q
0#
0P
0H
03
0%
#475000
1!
1/
1J
1A
1K
0Q
0N
0G
02
0$
#480000
0!
1"
0/
10
1I
0J
0A
1L
1M
1O
1F
0K
11
1Q
1#
1P
1H
13
1%
#485000
1!
1/
1J
1A
1K
0Q
1N
1G
12
1$
#490000
0!
0"
0/
00
0I
0J
0A
0L
0M
0O
0F
0K
01
1Q
0#
0P
0H
03
0%
#495000
1!
1/
1J
1A
1K
0Q
0N
0G
02
0$
#500000
0!
1"
0/
10
1I
0J
0A
1L
1M
1O
1F
0K
11
1Q
1#
1P
1H
13
1%
#505000
1!
1/
1J
1A
1K
0Q
1N
1G
12
1$
#510000
0!
0"
0/
00
0I
0J
0A
0L
0M
0O
0F
0K
01
1Q
0#
0P
0H
03
0%
#515000
1!
1/
1J
1A
1K
0Q
0N
0G
02
0$
#520000
0!
1"
0/
10
1I
0J
0A
1L
1M
1O
1F
0K
11
1Q
1#
1P
1H
13
1%
#525000
1!
1/
1J
1A
1K
0Q
1N
1G
12
1$
#530000
0!
0"
0/
00
0I
0J
0A
0L
0M
0O
0F
0K
01
1Q
0#
0P
0H
03
0%
#535000
1!
1/
1J
1A
1K
0Q
0N
0G
02
0$
#540000
0!
1"
0/
10
1I
0J
0A
1L
1M
1O
1F
0K
11
1Q
1#
1P
1H
13
1%
#545000
1!
1/
1J
1A
1K
0Q
1N
1G
12
1$
#550000
0!
0"
0/
00
0I
0J
0A
0L
0M
0O
0F
0K
01
1Q
0#
0P
0H
03
0%
#555000
1!
1/
1J
1A
1K
0Q
0N
0G
02
0$
#560000
0!
1"
0/
10
1I
0J
0A
1L
1M
1O
1F
0K
11
1Q
1#
1P
1H
13
1%
#565000
1!
1/
1J
1A
1K
0Q
1N
1G
12
1$
#570000
0!
0"
0/
00
0I
0J
0A
0L
0M
0O
0F
0K
01
1Q
0#
0P
0H
03
0%
#575000
1!
1/
1J
1A
1K
0Q
0N
0G
02
0$
#580000
0!
1"
0/
10
1I
0J
0A
1L
1M
1O
1F
0K
11
1Q
1#
1P
1H
13
1%
#585000
1!
1/
1J
1A
1K
0Q
1N
1G
12
1$
#590000
0!
0"
0/
00
0I
0J
0A
0L
0M
0O
0F
0K
01
1Q
0#
0P
0H
03
0%
#595000
1!
1/
1J
1A
1K
0Q
0N
0G
02
0$
#600000
0!
1"
0/
10
1I
0J
0A
1L
1M
1O
1F
0K
11
1Q
1#
1P
1H
13
1%
#605000
1!
1/
1J
1A
1K
0Q
1N
1G
12
1$
#610000
0!
0"
0/
00
0I
0J
0A
0L
0M
0O
0F
0K
01
1Q
0#
0P
0H
03
0%
#615000
1!
1/
1J
1A
1K
0Q
0N
0G
02
0$
#620000
0!
1"
0/
10
1I
0J
0A
1L
1M
1O
1F
0K
11
1Q
1#
1P
1H
13
1%
#625000
1!
1/
1J
1A
1K
0Q
1N
1G
12
1$
#630000
0!
0"
0/
00
0I
0J
0A
0L
0M
0O
0F
0K
01
1Q
0#
0P
0H
03
0%
#635000
1!
1/
1J
1A
1K
0Q
0N
0G
02
0$
#640000
0!
1"
0/
10
1I
0J
0A
1L
1M
1O
1F
0K
11
1Q
1#
1P
1H
13
1%
#645000
1!
1/
1J
1A
1K
0Q
1N
1G
12
1$
#650000
0!
0"
0/
00
0I
0J
0A
0L
0M
0O
0F
0K
01
1Q
0#
0P
0H
03
0%
#655000
1!
1/
1J
1A
1K
0Q
0N
0G
02
0$
#660000
0!
1"
0/
10
1I
0J
0A
1L
1M
1O
1F
0K
11
1Q
1#
1P
1H
13
1%
#665000
1!
1/
1J
1A
1K
0Q
1N
1G
12
1$
#670000
0!
0"
0/
00
0I
0J
0A
0L
0M
0O
0F
0K
01
1Q
0#
0P
0H
03
0%
#675000
1!
1/
1J
1A
1K
0Q
0N
0G
02
0$
#680000
0!
1"
0/
10
1I
0J
0A
1L
1M
1O
1F
0K
11
1Q
1#
1P
1H
13
1%
#685000
1!
1/
1J
1A
1K
0Q
1N
1G
12
1$
#690000
0!
0"
0/
00
0I
0J
0A
0L
0M
0O
0F
0K
01
1Q
0#
0P
0H
03
0%
#695000
1!
1/
1J
1A
1K
0Q
0N
0G
02
0$
#700000
0!
1"
0/
10
1I
0J
0A
1L
1M
1O
1F
0K
11
1Q
1#
1P
1H
13
1%
#705000
1!
1/
1J
1A
1K
0Q
1N
1G
12
1$
#710000
0!
0"
0/
00
0I
0J
0A
0L
0M
0O
0F
0K
01
1Q
0#
0P
0H
03
0%
#715000
1!
1/
1J
1A
1K
0Q
0N
0G
02
0$
#720000
0!
1"
0/
10
1I
0J
0A
1L
1M
1O
1F
0K
11
1Q
1#
1P
1H
13
1%
#725000
1!
1/
1J
1A
1K
0Q
1N
1G
12
1$
#730000
0!
0"
0/
00
0I
0J
0A
0L
0M
0O
0F
0K
01
1Q
0#
0P
0H
03
0%
#735000
1!
1/
1J
1A
1K
0Q
0N
0G
02
0$
#740000
0!
1"
0/
10
1I
0J
0A
1L
1M
1O
1F
0K
11
1Q
1#
1P
1H
13
1%
#745000
1!
1/
1J
1A
1K
0Q
1N
1G
12
1$
#750000
0!
0"
0/
00
0I
0J
0A
0L
0M
0O
0F
0K
01
1Q
0#
0P
0H
03
0%
#755000
1!
1/
1J
1A
1K
0Q
0N
0G
02
0$
#760000
0!
1"
0/
10
1I
0J
0A
1L
1M
1O
1F
0K
11
1Q
1#
1P
1H
13
1%
#765000
1!
1/
1J
1A
1K
0Q
1N
1G
12
1$
#770000
0!
0"
0/
00
0I
0J
0A
0L
0M
0O
0F
0K
01
1Q
0#
0P
0H
03
0%
#775000
1!
1/
1J
1A
1K
0Q
0N
0G
02
0$
#780000
0!
1"
0/
10
1I
0J
0A
1L
1M
1O
1F
0K
11
1Q
1#
1P
1H
13
1%
#785000
1!
1/
1J
1A
1K
0Q
1N
1G
12
1$
#790000
0!
0"
0/
00
0I
0J
0A
0L
0M
0O
0F
0K
01
1Q
0#
0P
0H
03
0%
#795000
1!
1/
1J
1A
1K
0Q
0N
0G
02
0$
#800000
0!
1"
0/
10
1I
0J
0A
1L
1M
1O
1F
0K
11
1Q
1#
1P
1H
13
1%
#805000
1!
1/
1J
1A
1K
0Q
1N
1G
12
1$
#810000
0!
0"
0/
00
0I
0J
0A
0L
0M
0O
0F
0K
01
1Q
0#
0P
0H
03
0%
#815000
1!
1/
1J
1A
1K
0Q
0N
0G
02
0$
#820000
0!
1"
0/
10
1I
0J
0A
1L
1M
1O
1F
0K
11
1Q
1#
1P
1H
13
1%
#825000
1!
1/
1J
1A
1K
0Q
1N
1G
12
1$
#830000
0!
0"
0/
00
0I
0J
0A
0L
0M
0O
0F
0K
01
1Q
0#
0P
0H
03
0%
#835000
1!
1/
1J
1A
1K
0Q
0N
0G
02
0$
#840000
0!
1"
0/
10
1I
0J
0A
1L
1M
1O
1F
0K
11
1Q
1#
1P
1H
13
1%
#845000
1!
1/
1J
1A
1K
0Q
1N
1G
12
1$
#850000
0!
0"
0/
00
0I
0J
0A
0L
0M
0O
0F
0K
01
1Q
0#
0P
0H
03
0%
#855000
1!
1/
1J
1A
1K
0Q
0N
0G
02
0$
#860000
0!
1"
0/
10
1I
0J
0A
1L
1M
1O
1F
0K
11
1Q
1#
1P
1H
13
1%
#865000
1!
1/
1J
1A
1K
0Q
1N
1G
12
1$
#870000
0!
0"
0/
00
0I
0J
0A
0L
0M
0O
0F
0K
01
1Q
0#
0P
0H
03
0%
#875000
1!
1/
1J
1A
1K
0Q
0N
0G
02
0$
#880000
0!
1"
0/
10
1I
0J
0A
1L
1M
1O
1F
0K
11
1Q
1#
1P
1H
13
1%
#885000
1!
1/
1J
1A
1K
0Q
1N
1G
12
1$
#890000
0!
0"
0/
00
0I
0J
0A
0L
0M
0O
0F
0K
01
1Q
0#
0P
0H
03
0%
#895000
1!
1/
1J
1A
1K
0Q
0N
0G
02
0$
#900000
0!
1"
0/
10
1I
0J
0A
1L
1M
1O
1F
0K
11
1Q
1#
1P
1H
13
1%
#905000
1!
1/
1J
1A
1K
0Q
1N
1G
12
1$
#910000
0!
0"
0/
00
0I
0J
0A
0L
0M
0O
0F
0K
01
1Q
0#
0P
0H
03
0%
#915000
1!
1/
1J
1A
1K
0Q
0N
0G
02
0$
#920000
0!
1"
0/
10
1I
0J
0A
1L
1M
1O
1F
0K
11
1Q
1#
1P
1H
13
1%
#925000
1!
1/
1J
1A
1K
0Q
1N
1G
12
1$
#930000
0!
0"
0/
00
0I
0J
0A
0L
0M
0O
0F
0K
01
1Q
0#
0P
0H
03
0%
#935000
1!
1/
1J
1A
1K
0Q
0N
0G
02
0$
#940000
0!
1"
0/
10
1I
0J
0A
1L
1M
1O
1F
0K
11
1Q
1#
1P
1H
13
1%
#945000
1!
1/
1J
1A
1K
0Q
1N
1G
12
1$
#950000
0!
0"
0/
00
0I
0J
0A
0L
0M
0O
0F
0K
01
1Q
0#
0P
0H
03
0%
#955000
1!
1/
1J
1A
1K
0Q
0N
0G
02
0$
#960000
0!
1"
0/
10
1I
0J
0A
1L
1M
1O
1F
0K
11
1Q
1#
1P
1H
13
1%
#965000
1!
1/
1J
1A
1K
0Q
1N
1G
12
1$
#970000
0!
0"
0/
00
0I
0J
0A
0L
0M
0O
0F
0K
01
1Q
0#
0P
0H
03
0%
#975000
1!
1/
1J
1A
1K
0Q
0N
0G
02
0$
#980000
0!
1"
0/
10
1I
0J
0A
1L
1M
1O
1F
0K
11
1Q
1#
1P
1H
13
1%
#985000
1!
1/
1J
1A
1K
0Q
1N
1G
12
1$
#990000
0!
0"
0/
00
0I
0J
0A
0L
0M
0O
0F
0K
01
1Q
0#
0P
0H
03
0%
#995000
1!
1/
1J
1A
1K
0Q
0N
0G
02
0$
