lab3_2/simulation/qsim/lab3_2.msim.vcd
$comment
	File created using the following command:
		vcd file lab3_2.msim.vcd -direction
$end
$date
	Mon Aug 09 13:13:01 2021
$end
$version
	ModelSim Version 10.5b
$end
$timescale
	1ps
$end

$scope module lab3_2_vhd_vec_tst $end
$var wire 1 ! LEDR [1] $end
$var wire 1 " LEDR [0] $end
$var wire 1 # SW [1] $end
$var wire 1 $ SW [0] $end

$scope module i1 $end
$var wire 1 % gnd $end
$var wire 1 & vcc $end
$var wire 1 ' unknown $end
$var wire 1 ( devoe $end
$var wire 1 ) devclrn $end
$var wire 1 * devpor $end
$var wire 1 + ww_devoe $end
$var wire 1 , ww_devclrn $end
$var wire 1 - ww_devpor $end
$var wire 1 . ww_SW [1] $end
$var wire 1 / ww_SW [0] $end
$var wire 1 0 ww_LEDR [1] $end
$var wire 1 1 ww_LEDR [0] $end
$var wire 1 2 \~QUARTUS_CREATED_ADC1~_CHSEL_bus\ [4] $end
$var wire 1 3 \~QUARTUS_CREATED_ADC1~_CHSEL_bus\ [3] $end
$var wire 1 4 \~QUARTUS_CREATED_ADC1~_CHSEL_bus\ [2] $end
$var wire 1 5 \~QUARTUS_CREATED_ADC1~_CHSEL_bus\ [1] $end
$var wire 1 6 \~QUARTUS_CREATED_ADC1~_CHSEL_bus\ [0] $end
$var wire 1 7 \~QUARTUS_CREATED_ADC2~_CHSEL_bus\ [4] $end
$var wire 1 8 \~QUARTUS_CREATED_ADC2~_CHSEL_bus\ [3] $end
$var wire 1 9 \~QUARTUS_CREATED_ADC2~_CHSEL_bus\ [2] $end
$var wire 1 : \~QUARTUS_CREATED_ADC2~_CHSEL_bus\ [1] $end
$var wire 1 ; \~QUARTUS_CREATED_ADC2~_CHSEL_bus\ [0] $end
$var wire 1 < \~QUARTUS_CREATED_GND~I_combout\ $end
$var wire 1 = \~QUARTUS_CREATED_UNVM~~busy\ $end
$var wire 1 > \~QUARTUS_CREATED_ADC1~~eoc\ $end
$var wire 1 ? \~QUARTUS_CREATED_ADC2~~eoc\ $end
$var wire 1 @ \LEDR[0]~output_o\ $end
$var wire 1 A \LEDR[1]~output_o\ $end
$var wire 1 B \SW[1]~input_o\ $end
$var wire 1 C \SW[0]~input_o\ $end
$var wire 1 D \L1|S_g~combout\ $end
$var wire 1 E \L1|R~combout\ $end
$var wire 1 F \L1|R_g~combout\ $end
$var wire 1 G \L1|Qb~combout\ $end
$var wire 1 H \L1|Qa~combout\ $end
$upscope $end
$upscope $end
$enddefinitions $end
#0
$dumpvars
0%
1&
x'
1(
1)
1*
1+
1,
1-
0<
z=
z>
z?
x@
0A
0B
0C
1D
1E
1F
xG
xH
0#
0$
0!
x"
0.
0/
00
x1
02
03
04
05
06
07
08
09
0:
0;
$end
#7500
1#
1.
1B
0F
1G
0H
0@
01
0"
#10000
1$
1/
1C
0D
0E
1F
1H
1@
0G
11
1"
#15000
0#
0.
0B
1D
#20000
0$
0/
0C
1E
#22500
1#
1.
1B
0F
1G
0H
0@
01
0"
#30000
0#
1$
1/
0.
0B
1C
0E
1F
#37500
1#
1.
1B
0D
1H
1@
0G
11
1"
